﻿# Wavefront OBJ file automatically generated by Tiled2Unity

# Vertices (Count = 361)
v 0 -0.319999992847443 0
v -0.319999992847443 -0.319999992847443 0
v -0.319999992847443 0 0
v 0 0 0
v -0.639999985694885 -0.319999992847443 0
v -0.639999985694885 0 0
v -0.959999978542328 -0.319999992847443 0
v -0.959999978542328 0 0
v -1.27999997138977 -0.319999992847443 0
v -1.27999997138977 0 0
v -1.59999990463257 -0.319999992847443 0
v -1.59999990463257 0 0
v -1.91999995708466 -0.319999992847443 0
v -1.91999995708466 0 0
v -2.24000000953674 -0.319999992847443 0
v -2.24000000953674 0 0
v -2.55999994277954 -0.319999992847443 0
v -2.55999994277954 0 0
v -2.87999987602234 -0.319999992847443 0
v -2.87999987602234 0 0
v -3.19999980926514 -0.319999992847443 0
v -3.19999980926514 0 0
v -3.51999998092651 -0.319999992847443 0
v -3.51999998092651 0 0
v -3.83999991416931 -0.319999992847443 0
v -3.83999991416931 0 0
v -4.15999984741211 -0.319999992847443 0
v -4.15999984741211 0 0
v -4.48000001907349 -0.319999992847443 0
v -4.48000001907349 0 0
v -4.79999971389771 -0.319999992847443 0
v -4.79999971389771 0 0
v -5.11999988555908 -0.319999992847443 0
v -5.11999988555908 0 0
v -5.44000005722046 -0.319999992847443 0
v -5.44000005722046 0 0
v -5.75999975204468 -0.319999992847443 0
v -5.75999975204468 0 0
v 0 -0.639999985694885 0
v -0.319999992847443 -0.639999985694885 0
v -0.639999985694885 -0.639999985694885 0
v -0.959999978542328 -0.639999985694885 0
v -1.27999997138977 -0.639999985694885 0
v -1.59999990463257 -0.639999985694885 0
v -1.91999995708466 -0.639999985694885 0
v -2.24000000953674 -0.639999985694885 0
v -2.55999994277954 -0.639999985694885 0
v -2.87999987602234 -0.639999985694885 0
v -3.19999980926514 -0.639999985694885 0
v -3.51999998092651 -0.639999985694885 0
v -3.83999991416931 -0.639999985694885 0
v -4.15999984741211 -0.639999985694885 0
v -4.48000001907349 -0.639999985694885 0
v -4.79999971389771 -0.639999985694885 0
v -5.11999988555908 -0.639999985694885 0
v -5.44000005722046 -0.639999985694885 0
v -5.75999975204468 -0.639999985694885 0
v 0 -0.959999978542328 0
v -0.319999992847443 -0.959999978542328 0
v -0.639999985694885 -0.959999978542328 0
v -0.959999978542328 -0.959999978542328 0
v -1.27999997138977 -0.959999978542328 0
v -1.59999990463257 -0.959999978542328 0
v -1.91999995708466 -0.959999978542328 0
v -2.24000000953674 -0.959999978542328 0
v -2.55999994277954 -0.959999978542328 0
v -2.87999987602234 -0.959999978542328 0
v -3.19999980926514 -0.959999978542328 0
v -3.51999998092651 -0.959999978542328 0
v -3.83999991416931 -0.959999978542328 0
v -4.15999984741211 -0.959999978542328 0
v -4.48000001907349 -0.959999978542328 0
v -4.79999971389771 -0.959999978542328 0
v -5.11999988555908 -0.959999978542328 0
v -5.44000005722046 -0.959999978542328 0
v -5.75999975204468 -0.959999978542328 0
v 0 -1.27999997138977 0
v -0.319999992847443 -1.27999997138977 0
v -0.639999985694885 -1.27999997138977 0
v -0.959999978542328 -1.27999997138977 0
v -1.27999997138977 -1.27999997138977 0
v -1.59999990463257 -1.27999997138977 0
v -1.91999995708466 -1.27999997138977 0
v -2.24000000953674 -1.27999997138977 0
v -2.55999994277954 -1.27999997138977 0
v -2.87999987602234 -1.27999997138977 0
v -3.19999980926514 -1.27999997138977 0
v -3.51999998092651 -1.27999997138977 0
v -3.83999991416931 -1.27999997138977 0
v -4.15999984741211 -1.27999997138977 0
v -4.48000001907349 -1.27999997138977 0
v -4.79999971389771 -1.27999997138977 0
v -5.11999988555908 -1.27999997138977 0
v -5.44000005722046 -1.27999997138977 0
v -5.75999975204468 -1.27999997138977 0
v 0 -1.59999990463257 0
v -0.319999992847443 -1.59999990463257 0
v -0.639999985694885 -1.59999990463257 0
v -0.959999978542328 -1.59999990463257 0
v -1.27999997138977 -1.59999990463257 0
v -1.59999990463257 -1.59999990463257 0
v -1.91999995708466 -1.59999990463257 0
v -2.24000000953674 -1.59999990463257 0
v -2.55999994277954 -1.59999990463257 0
v -2.87999987602234 -1.59999990463257 0
v -3.19999980926514 -1.59999990463257 0
v -3.51999998092651 -1.59999990463257 0
v -3.83999991416931 -1.59999990463257 0
v -4.15999984741211 -1.59999990463257 0
v -4.48000001907349 -1.59999990463257 0
v -4.79999971389771 -1.59999990463257 0
v -5.11999988555908 -1.59999990463257 0
v -5.44000005722046 -1.59999990463257 0
v -5.75999975204468 -1.59999990463257 0
v 0 -1.91999995708466 0
v -0.319999992847443 -1.91999995708466 0
v -0.639999985694885 -1.91999995708466 0
v -0.959999978542328 -1.91999995708466 0
v -1.27999997138977 -1.91999995708466 0
v -1.59999990463257 -1.91999995708466 0
v -1.91999995708466 -1.91999995708466 0
v -2.24000000953674 -1.91999995708466 0
v -2.55999994277954 -1.91999995708466 0
v -2.87999987602234 -1.91999995708466 0
v -3.19999980926514 -1.91999995708466 0
v -3.51999998092651 -1.91999995708466 0
v -3.83999991416931 -1.91999995708466 0
v -4.15999984741211 -1.91999995708466 0
v -4.48000001907349 -1.91999995708466 0
v -4.79999971389771 -1.91999995708466 0
v -5.11999988555908 -1.91999995708466 0
v -5.44000005722046 -1.91999995708466 0
v -5.75999975204468 -1.91999995708466 0
v 0 -2.24000000953674 0
v -0.319999992847443 -2.24000000953674 0
v -0.639999985694885 -2.24000000953674 0
v -0.959999978542328 -2.24000000953674 0
v -1.27999997138977 -2.24000000953674 0
v -1.59999990463257 -2.24000000953674 0
v -1.91999995708466 -2.24000000953674 0
v -2.24000000953674 -2.24000000953674 0
v -2.55999994277954 -2.24000000953674 0
v -2.87999987602234 -2.24000000953674 0
v -3.19999980926514 -2.24000000953674 0
v -3.51999998092651 -2.24000000953674 0
v -3.83999991416931 -2.24000000953674 0
v -4.15999984741211 -2.24000000953674 0
v -4.48000001907349 -2.24000000953674 0
v -4.79999971389771 -2.24000000953674 0
v -5.11999988555908 -2.24000000953674 0
v -5.44000005722046 -2.24000000953674 0
v -5.75999975204468 -2.24000000953674 0
v 0 -2.55999994277954 0
v -0.319999992847443 -2.55999994277954 0
v -0.639999985694885 -2.55999994277954 0
v -0.959999978542328 -2.55999994277954 0
v -1.27999997138977 -2.55999994277954 0
v -1.59999990463257 -2.55999994277954 0
v -1.91999995708466 -2.55999994277954 0
v -2.24000000953674 -2.55999994277954 0
v -2.55999994277954 -2.55999994277954 0
v -2.87999987602234 -2.55999994277954 0
v -3.19999980926514 -2.55999994277954 0
v -3.51999998092651 -2.55999994277954 0
v -3.83999991416931 -2.55999994277954 0
v -4.15999984741211 -2.55999994277954 0
v -4.48000001907349 -2.55999994277954 0
v -4.79999971389771 -2.55999994277954 0
v -5.11999988555908 -2.55999994277954 0
v -5.44000005722046 -2.55999994277954 0
v -5.75999975204468 -2.55999994277954 0
v 0 -2.87999987602234 0
v -0.319999992847443 -2.87999987602234 0
v -0.639999985694885 -2.87999987602234 0
v -0.959999978542328 -2.87999987602234 0
v -1.27999997138977 -2.87999987602234 0
v -1.59999990463257 -2.87999987602234 0
v -1.91999995708466 -2.87999987602234 0
v -2.24000000953674 -2.87999987602234 0
v -2.55999994277954 -2.87999987602234 0
v -2.87999987602234 -2.87999987602234 0
v -3.19999980926514 -2.87999987602234 0
v -3.51999998092651 -2.87999987602234 0
v -3.83999991416931 -2.87999987602234 0
v -4.15999984741211 -2.87999987602234 0
v -4.48000001907349 -2.87999987602234 0
v -4.79999971389771 -2.87999987602234 0
v -5.11999988555908 -2.87999987602234 0
v -5.44000005722046 -2.87999987602234 0
v -5.75999975204468 -2.87999987602234 0
v 0 -3.19999980926514 0
v -0.319999992847443 -3.19999980926514 0
v -0.639999985694885 -3.19999980926514 0
v -0.959999978542328 -3.19999980926514 0
v -1.27999997138977 -3.19999980926514 0
v -1.59999990463257 -3.19999980926514 0
v -1.91999995708466 -3.19999980926514 0
v -2.24000000953674 -3.19999980926514 0
v -2.55999994277954 -3.19999980926514 0
v -2.87999987602234 -3.19999980926514 0
v -3.19999980926514 -3.19999980926514 0
v -3.51999998092651 -3.19999980926514 0
v -3.83999991416931 -3.19999980926514 0
v -4.15999984741211 -3.19999980926514 0
v -4.48000001907349 -3.19999980926514 0
v -4.79999971389771 -3.19999980926514 0
v -5.11999988555908 -3.19999980926514 0
v -5.44000005722046 -3.19999980926514 0
v -5.75999975204468 -3.19999980926514 0
v 0 -3.51999998092651 0
v -0.319999992847443 -3.51999998092651 0
v -0.639999985694885 -3.51999998092651 0
v -0.959999978542328 -3.51999998092651 0
v -1.27999997138977 -3.51999998092651 0
v -1.59999990463257 -3.51999998092651 0
v -1.91999995708466 -3.51999998092651 0
v -2.24000000953674 -3.51999998092651 0
v -2.55999994277954 -3.51999998092651 0
v -2.87999987602234 -3.51999998092651 0
v -3.19999980926514 -3.51999998092651 0
v -3.51999998092651 -3.51999998092651 0
v -3.83999991416931 -3.51999998092651 0
v -4.15999984741211 -3.51999998092651 0
v -4.48000001907349 -3.51999998092651 0
v -4.79999971389771 -3.51999998092651 0
v -5.11999988555908 -3.51999998092651 0
v -5.44000005722046 -3.51999998092651 0
v -5.75999975204468 -3.51999998092651 0
v 0 -3.83999991416931 0
v -0.319999992847443 -3.83999991416931 0
v -0.639999985694885 -3.83999991416931 0
v -0.959999978542328 -3.83999991416931 0
v -1.27999997138977 -3.83999991416931 0
v -1.59999990463257 -3.83999991416931 0
v -1.91999995708466 -3.83999991416931 0
v -2.24000000953674 -3.83999991416931 0
v -2.55999994277954 -3.83999991416931 0
v -2.87999987602234 -3.83999991416931 0
v -3.19999980926514 -3.83999991416931 0
v -3.51999998092651 -3.83999991416931 0
v -3.83999991416931 -3.83999991416931 0
v -4.15999984741211 -3.83999991416931 0
v -4.48000001907349 -3.83999991416931 0
v -4.79999971389771 -3.83999991416931 0
v -5.11999988555908 -3.83999991416931 0
v -5.44000005722046 -3.83999991416931 0
v -5.75999975204468 -3.83999991416931 0
v 0 -4.15999984741211 0
v -0.319999992847443 -4.15999984741211 0
v -0.639999985694885 -4.15999984741211 0
v -0.959999978542328 -4.15999984741211 0
v -1.27999997138977 -4.15999984741211 0
v -1.59999990463257 -4.15999984741211 0
v -1.91999995708466 -4.15999984741211 0
v -2.24000000953674 -4.15999984741211 0
v -2.55999994277954 -4.15999984741211 0
v -2.87999987602234 -4.15999984741211 0
v -3.19999980926514 -4.15999984741211 0
v -3.51999998092651 -4.15999984741211 0
v -3.83999991416931 -4.15999984741211 0
v -4.15999984741211 -4.15999984741211 0
v -4.48000001907349 -4.15999984741211 0
v -4.79999971389771 -4.15999984741211 0
v -5.11999988555908 -4.15999984741211 0
v -5.44000005722046 -4.15999984741211 0
v -5.75999975204468 -4.15999984741211 0
v 0 -4.48000001907349 0
v -0.319999992847443 -4.48000001907349 0
v -0.639999985694885 -4.48000001907349 0
v -0.959999978542328 -4.48000001907349 0
v -1.27999997138977 -4.48000001907349 0
v -1.59999990463257 -4.48000001907349 0
v -1.91999995708466 -4.48000001907349 0
v -2.24000000953674 -4.48000001907349 0
v -2.55999994277954 -4.48000001907349 0
v -2.87999987602234 -4.48000001907349 0
v -3.19999980926514 -4.48000001907349 0
v -3.51999998092651 -4.48000001907349 0
v -3.83999991416931 -4.48000001907349 0
v -4.15999984741211 -4.48000001907349 0
v -4.48000001907349 -4.48000001907349 0
v -4.79999971389771 -4.48000001907349 0
v -5.11999988555908 -4.48000001907349 0
v -5.44000005722046 -4.48000001907349 0
v -5.75999975204468 -4.48000001907349 0
v 0 -4.79999971389771 0
v -0.319999992847443 -4.79999971389771 0
v -0.639999985694885 -4.79999971389771 0
v -0.959999978542328 -4.79999971389771 0
v -1.27999997138977 -4.79999971389771 0
v -1.59999990463257 -4.79999971389771 0
v -1.91999995708466 -4.79999971389771 0
v -2.24000000953674 -4.79999971389771 0
v -2.55999994277954 -4.79999971389771 0
v -2.87999987602234 -4.79999971389771 0
v -3.19999980926514 -4.79999971389771 0
v -3.51999998092651 -4.79999971389771 0
v -3.83999991416931 -4.79999971389771 0
v -4.15999984741211 -4.79999971389771 0
v -4.48000001907349 -4.79999971389771 0
v -4.79999971389771 -4.79999971389771 0
v -5.11999988555908 -4.79999971389771 0
v -5.44000005722046 -4.79999971389771 0
v -5.75999975204468 -4.79999971389771 0
v 0 -5.11999988555908 0
v -0.319999992847443 -5.11999988555908 0
v -0.639999985694885 -5.11999988555908 0
v -0.959999978542328 -5.11999988555908 0
v -1.27999997138977 -5.11999988555908 0
v -1.59999990463257 -5.11999988555908 0
v -1.91999995708466 -5.11999988555908 0
v -2.24000000953674 -5.11999988555908 0
v -2.55999994277954 -5.11999988555908 0
v -2.87999987602234 -5.11999988555908 0
v -3.19999980926514 -5.11999988555908 0
v -3.51999998092651 -5.11999988555908 0
v -3.83999991416931 -5.11999988555908 0
v -4.15999984741211 -5.11999988555908 0
v -4.48000001907349 -5.11999988555908 0
v -4.79999971389771 -5.11999988555908 0
v -5.11999988555908 -5.11999988555908 0
v -5.44000005722046 -5.11999988555908 0
v -5.75999975204468 -5.11999988555908 0
v 0 -5.44000005722046 0
v -0.319999992847443 -5.44000005722046 0
v -0.639999985694885 -5.44000005722046 0
v -0.959999978542328 -5.44000005722046 0
v -1.27999997138977 -5.44000005722046 0
v -1.59999990463257 -5.44000005722046 0
v -1.91999995708466 -5.44000005722046 0
v -2.24000000953674 -5.44000005722046 0
v -2.55999994277954 -5.44000005722046 0
v -2.87999987602234 -5.44000005722046 0
v -3.19999980926514 -5.44000005722046 0
v -3.51999998092651 -5.44000005722046 0
v -3.83999991416931 -5.44000005722046 0
v -4.15999984741211 -5.44000005722046 0
v -4.48000001907349 -5.44000005722046 0
v -4.79999971389771 -5.44000005722046 0
v -5.11999988555908 -5.44000005722046 0
v -5.44000005722046 -5.44000005722046 0
v -5.75999975204468 -5.44000005722046 0
v 0 -5.75999975204468 0
v -0.319999992847443 -5.75999975204468 0
v -0.639999985694885 -5.75999975204468 0
v -0.959999978542328 -5.75999975204468 0
v -1.27999997138977 -5.75999975204468 0
v -1.59999990463257 -5.75999975204468 0
v -1.91999995708466 -5.75999975204468 0
v -2.24000000953674 -5.75999975204468 0
v -2.55999994277954 -5.75999975204468 0
v -2.87999987602234 -5.75999975204468 0
v -3.19999980926514 -5.75999975204468 0
v -3.51999998092651 -5.75999975204468 0
v -3.83999991416931 -5.75999975204468 0
v -4.15999984741211 -5.75999975204468 0
v -4.48000001907349 -5.75999975204468 0
v -4.79999971389771 -5.75999975204468 0
v -5.11999988555908 -5.75999975204468 0
v -5.44000005722046 -5.75999975204468 0
v -5.75999975204468 -5.75999975204468 0

# Texture Coorindates (Count = 71)
vt 0.4286935 0.9376221
vt 0.4998779 0.9376221
vt 0.4998779 0.9998779
vt 0.4286935 0.9998779
vt 0.2858364 0.8126221
vt 0.3570208 0.8126221
vt 0.3570208 0.8748779
vt 0.2858364 0.8748779
vt 0.2858364 0.8751221
vt 0.3570208 0.8751221
vt 0.3570208 0.9373779
vt 0.2858364 0.9373779
vt 0.1429792 0.8751221
vt 0.2141636 0.8751221
vt 0.2141636 0.9373779
vt 0.1429792 0.9373779
vt 0.2144078 0.8751221
vt 0.2855922 0.8751221
vt 0.2855922 0.9373779
vt 0.2144078 0.9373779
vt 0.3572649 0.8126221
vt 0.4284494 0.8126221
vt 0.4284494 0.8748779
vt 0.3572649 0.8748779
vt 0.07155064 0.8751221
vt 0.1427351 0.8751221
vt 0.1427351 0.9373779
vt 0.07155064 0.9373779
vt 0.0001220703 0.8126221
vt 0.0713065 0.8126221
vt 0.0713065 0.8748779
vt 0.0001220703 0.8748779
vt 0.07155064 0.8126221
vt 0.1427351 0.8126221
vt 0.1427351 0.8748779
vt 0.07155064 0.8748779
vt 0.0001220703 0.9376221
vt 0.0713065 0.9376221
vt 0.0713065 0.9998779
vt 0.0001220703 0.9998779
vt 0.07155064 0.9376221
vt 0.1427351 0.9376221
vt 0.1427351 0.9998779
vt 0.07155064 0.9998779
vt 0.0001220703 0.8751221
vt 0.0713065 0.8751221
vt 0.0713065 0.9373779
vt 0.0001220703 0.9373779
vt 0.2858364 0.7501221
vt 0.3570208 0.7501221
vt 0.3570208 0.8123779
vt 0.2858364 0.8123779
vt 0.1429792 0.9376221
vt 0.2141636 0.9376221
vt 0.2141636 0.9998779
vt 0.1429792 0.9998779
vt 0.2144078 0.9376221
vt 0.2855922 0.9376221
vt 0.2855922 0.9998779
vt 0.2144078 0.9998779
vt 0.2858364 0.9376221
vt 0.3570208 0.9376221
vt 0.3570208 0.9998779
vt 0.2858364 0.9998779
vt 0.3572649 0.7501221
vt 0.4284494 0.7501221
vt 0.4284494 0.8123779
vt 0.3572649 0.8123779
vt 0.0001220703 0.0001220703
vt 0.9998779 0.0001220703
vt 0.9998779 0.9998779

# Normal
vn 0 0 -1

# Groups (Count = 3)
g mesh_[00]_[00]
f  1/1/1  2/2/1  3/3/1  4/4/1 
f  2/1/1  5/2/1  6/3/1  3/4/1 
f  5/1/1  7/2/1  8/3/1  6/4/1 
f  7/1/1  9/2/1  10/3/1  8/4/1 
f  9/1/1  11/2/1  12/3/1  10/4/1 
f  11/1/1  13/2/1  14/3/1  12/4/1 
f  13/1/1  15/2/1  16/3/1  14/4/1 
f  15/1/1  17/2/1  18/3/1  16/4/1 
f  17/1/1  19/2/1  20/3/1  18/4/1 
f  19/1/1  21/2/1  22/3/1  20/4/1 
f  21/1/1  23/2/1  24/3/1  22/4/1 
f  23/1/1  25/2/1  26/3/1  24/4/1 
f  25/1/1  27/2/1  28/3/1  26/4/1 
f  27/1/1  29/2/1  30/3/1  28/4/1 
f  29/1/1  31/2/1  32/3/1  30/4/1 
f  31/1/1  33/2/1  34/3/1  32/4/1 
f  33/1/1  35/2/1  36/3/1  34/4/1 
f  35/1/1  37/2/1  38/3/1  36/4/1 
f  39/1/1  40/2/1  2/3/1  1/4/1 
f  40/1/1  41/2/1  5/3/1  2/4/1 
f  41/1/1  42/2/1  7/3/1  5/4/1 
f  42/1/1  43/2/1  9/3/1  7/4/1 
f  43/1/1  44/2/1  11/3/1  9/4/1 
f  44/1/1  45/2/1  13/3/1  11/4/1 
f  45/1/1  46/2/1  15/3/1  13/4/1 
f  46/1/1  47/2/1  17/3/1  15/4/1 
f  47/1/1  48/2/1  19/3/1  17/4/1 
f  48/1/1  49/2/1  21/3/1  19/4/1 
f  49/1/1  50/2/1  23/3/1  21/4/1 
f  50/1/1  51/2/1  25/3/1  23/4/1 
f  51/1/1  52/2/1  27/3/1  25/4/1 
f  52/1/1  53/2/1  29/3/1  27/4/1 
f  53/1/1  54/2/1  31/3/1  29/4/1 
f  54/1/1  55/2/1  33/3/1  31/4/1 
f  55/1/1  56/2/1  35/3/1  33/4/1 
f  56/1/1  57/2/1  37/3/1  35/4/1 
f  58/1/1  59/2/1  40/3/1  39/4/1 
f  59/1/1  60/2/1  41/3/1  40/4/1 
f  60/1/1  61/2/1  42/3/1  41/4/1 
f  61/1/1  62/2/1  43/3/1  42/4/1 
f  62/1/1  63/2/1  44/3/1  43/4/1 
f  63/1/1  64/2/1  45/3/1  44/4/1 
f  64/1/1  65/2/1  46/3/1  45/4/1 
f  65/1/1  66/2/1  47/3/1  46/4/1 
f  66/1/1  67/2/1  48/3/1  47/4/1 
f  67/1/1  68/2/1  49/3/1  48/4/1 
f  68/1/1  69/2/1  50/3/1  49/4/1 
f  69/1/1  70/2/1  51/3/1  50/4/1 
f  70/1/1  71/2/1  52/3/1  51/4/1 
f  71/1/1  72/2/1  53/3/1  52/4/1 
f  72/1/1  73/2/1  54/3/1  53/4/1 
f  73/1/1  74/2/1  55/3/1  54/4/1 
f  74/1/1  75/2/1  56/3/1  55/4/1 
f  75/1/1  76/2/1  57/3/1  56/4/1 
f  77/1/1  78/2/1  59/3/1  58/4/1 
f  78/1/1  79/2/1  60/3/1  59/4/1 
f  79/1/1  80/2/1  61/3/1  60/4/1 
f  80/1/1  81/2/1  62/3/1  61/4/1 
f  81/1/1  82/2/1  63/3/1  62/4/1 
f  82/1/1  83/2/1  64/3/1  63/4/1 
f  83/1/1  84/2/1  65/3/1  64/4/1 
f  84/1/1  85/2/1  66/3/1  65/4/1 
f  85/1/1  86/2/1  67/3/1  66/4/1 
f  86/1/1  87/2/1  68/3/1  67/4/1 
f  87/1/1  88/2/1  69/3/1  68/4/1 
f  88/1/1  89/2/1  70/3/1  69/4/1 
f  89/1/1  90/2/1  71/3/1  70/4/1 
f  90/1/1  91/2/1  72/3/1  71/4/1 
f  91/1/1  92/2/1  73/3/1  72/4/1 
f  92/1/1  93/2/1  74/3/1  73/4/1 
f  93/1/1  94/2/1  75/3/1  74/4/1 
f  94/1/1  95/2/1  76/3/1  75/4/1 
f  96/1/1  97/2/1  78/3/1  77/4/1 
f  97/1/1  98/2/1  79/3/1  78/4/1 
f  98/1/1  99/2/1  80/3/1  79/4/1 
f  99/1/1  100/2/1  81/3/1  80/4/1 
f  100/1/1  101/2/1  82/3/1  81/4/1 
f  101/1/1  102/2/1  83/3/1  82/4/1 
f  102/1/1  103/2/1  84/3/1  83/4/1 
f  103/1/1  104/2/1  85/3/1  84/4/1 
f  104/1/1  105/2/1  86/3/1  85/4/1 
f  105/1/1  106/2/1  87/3/1  86/4/1 
f  106/1/1  107/2/1  88/3/1  87/4/1 
f  107/1/1  108/2/1  89/3/1  88/4/1 
f  108/1/1  109/2/1  90/3/1  89/4/1 
f  109/1/1  110/2/1  91/3/1  90/4/1 
f  110/1/1  111/2/1  92/3/1  91/4/1 
f  111/1/1  112/2/1  93/3/1  92/4/1 
f  112/1/1  113/2/1  94/3/1  93/4/1 
f  113/1/1  114/2/1  95/3/1  94/4/1 
f  115/1/1  116/2/1  97/3/1  96/4/1 
f  116/1/1  117/2/1  98/3/1  97/4/1 
f  117/1/1  118/2/1  99/3/1  98/4/1 
f  118/1/1  119/2/1  100/3/1  99/4/1 
f  119/1/1  120/2/1  101/3/1  100/4/1 
f  120/1/1  121/2/1  102/3/1  101/4/1 
f  121/1/1  122/2/1  103/3/1  102/4/1 
f  122/1/1  123/2/1  104/3/1  103/4/1 
f  123/1/1  124/2/1  105/3/1  104/4/1 
f  124/1/1  125/2/1  106/3/1  105/4/1 
f  125/1/1  126/2/1  107/3/1  106/4/1 
f  126/1/1  127/2/1  108/3/1  107/4/1 
f  127/1/1  128/2/1  109/3/1  108/4/1 
f  128/1/1  129/2/1  110/3/1  109/4/1 
f  129/1/1  130/2/1  111/3/1  110/4/1 
f  130/1/1  131/2/1  112/3/1  111/4/1 
f  131/1/1  132/2/1  113/3/1  112/4/1 
f  132/1/1  133/2/1  114/3/1  113/4/1 
f  134/1/1  135/2/1  116/3/1  115/4/1 
f  135/1/1  136/2/1  117/3/1  116/4/1 
f  136/1/1  137/2/1  118/3/1  117/4/1 
f  137/1/1  138/2/1  119/3/1  118/4/1 
f  138/1/1  139/2/1  120/3/1  119/4/1 
f  139/1/1  140/2/1  121/3/1  120/4/1 
f  140/1/1  141/2/1  122/3/1  121/4/1 
f  141/1/1  142/2/1  123/3/1  122/4/1 
f  142/1/1  143/2/1  124/3/1  123/4/1 
f  143/1/1  144/2/1  125/3/1  124/4/1 
f  144/1/1  145/2/1  126/3/1  125/4/1 
f  145/1/1  146/2/1  127/3/1  126/4/1 
f  146/1/1  147/2/1  128/3/1  127/4/1 
f  147/1/1  148/2/1  129/3/1  128/4/1 
f  148/1/1  149/2/1  130/3/1  129/4/1 
f  149/1/1  150/2/1  131/3/1  130/4/1 
f  150/1/1  151/2/1  132/3/1  131/4/1 
f  151/1/1  152/2/1  133/3/1  132/4/1 
f  153/1/1  154/2/1  135/3/1  134/4/1 
f  154/1/1  155/2/1  136/3/1  135/4/1 
f  155/1/1  156/2/1  137/3/1  136/4/1 
f  156/1/1  157/2/1  138/3/1  137/4/1 
f  157/1/1  158/2/1  139/3/1  138/4/1 
f  158/1/1  159/2/1  140/3/1  139/4/1 
f  159/1/1  160/2/1  141/3/1  140/4/1 
f  160/1/1  161/2/1  142/3/1  141/4/1 
f  161/1/1  162/2/1  143/3/1  142/4/1 
f  162/1/1  163/2/1  144/3/1  143/4/1 
f  163/1/1  164/2/1  145/3/1  144/4/1 
f  164/1/1  165/2/1  146/3/1  145/4/1 
f  165/1/1  166/2/1  147/3/1  146/4/1 
f  166/1/1  167/2/1  148/3/1  147/4/1 
f  167/1/1  168/2/1  149/3/1  148/4/1 
f  168/1/1  169/2/1  150/3/1  149/4/1 
f  169/1/1  170/2/1  151/3/1  150/4/1 
f  170/1/1  171/2/1  152/3/1  151/4/1 
f  172/1/1  173/2/1  154/3/1  153/4/1 
f  173/1/1  174/2/1  155/3/1  154/4/1 
f  174/1/1  175/2/1  156/3/1  155/4/1 
f  175/1/1  176/2/1  157/3/1  156/4/1 
f  176/1/1  177/2/1  158/3/1  157/4/1 
f  177/1/1  178/2/1  159/3/1  158/4/1 
f  178/1/1  179/2/1  160/3/1  159/4/1 
f  179/1/1  180/2/1  161/3/1  160/4/1 
f  180/1/1  181/2/1  162/3/1  161/4/1 
f  181/1/1  182/2/1  163/3/1  162/4/1 
f  182/1/1  183/2/1  164/3/1  163/4/1 
f  183/1/1  184/2/1  165/3/1  164/4/1 
f  184/1/1  185/2/1  166/3/1  165/4/1 
f  185/1/1  186/2/1  167/3/1  166/4/1 
f  186/1/1  187/2/1  168/3/1  167/4/1 
f  187/1/1  188/2/1  169/3/1  168/4/1 
f  188/1/1  189/2/1  170/3/1  169/4/1 
f  189/1/1  190/2/1  171/3/1  170/4/1 
f  191/1/1  192/2/1  173/3/1  172/4/1 
f  192/1/1  193/2/1  174/3/1  173/4/1 
f  193/1/1  194/2/1  175/3/1  174/4/1 
f  194/1/1  195/2/1  176/3/1  175/4/1 
f  195/1/1  196/2/1  177/3/1  176/4/1 
f  196/1/1  197/2/1  178/3/1  177/4/1 
f  197/1/1  198/2/1  179/3/1  178/4/1 
f  198/1/1  199/2/1  180/3/1  179/4/1 
f  199/1/1  200/2/1  181/3/1  180/4/1 
f  200/1/1  201/2/1  182/3/1  181/4/1 
f  201/1/1  202/2/1  183/3/1  182/4/1 
f  202/1/1  203/2/1  184/3/1  183/4/1 
f  203/1/1  204/2/1  185/3/1  184/4/1 
f  204/1/1  205/2/1  186/3/1  185/4/1 
f  205/1/1  206/2/1  187/3/1  186/4/1 
f  206/1/1  207/2/1  188/3/1  187/4/1 
f  207/1/1  208/2/1  189/3/1  188/4/1 
f  208/1/1  209/2/1  190/3/1  189/4/1 
f  210/1/1  211/2/1  192/3/1  191/4/1 
f  211/1/1  212/2/1  193/3/1  192/4/1 
f  212/1/1  213/2/1  194/3/1  193/4/1 
f  213/1/1  214/2/1  195/3/1  194/4/1 
f  214/1/1  215/2/1  196/3/1  195/4/1 
f  215/1/1  216/2/1  197/3/1  196/4/1 
f  216/1/1  217/2/1  198/3/1  197/4/1 
f  217/1/1  218/2/1  199/3/1  198/4/1 
f  218/1/1  219/2/1  200/3/1  199/4/1 
f  219/1/1  220/2/1  201/3/1  200/4/1 
f  220/1/1  221/2/1  202/3/1  201/4/1 
f  221/1/1  222/2/1  203/3/1  202/4/1 
f  222/1/1  223/2/1  204/3/1  203/4/1 
f  223/1/1  224/2/1  205/3/1  204/4/1 
f  224/1/1  225/2/1  206/3/1  205/4/1 
f  225/1/1  226/2/1  207/3/1  206/4/1 
f  226/1/1  227/2/1  208/3/1  207/4/1 
f  227/1/1  228/2/1  209/3/1  208/4/1 
f  229/1/1  230/2/1  211/3/1  210/4/1 
f  230/1/1  231/2/1  212/3/1  211/4/1 
f  231/1/1  232/2/1  213/3/1  212/4/1 
f  232/1/1  233/2/1  214/3/1  213/4/1 
f  233/1/1  234/2/1  215/3/1  214/4/1 
f  234/1/1  235/2/1  216/3/1  215/4/1 
f  235/1/1  236/2/1  217/3/1  216/4/1 
f  236/1/1  237/2/1  218/3/1  217/4/1 
f  237/1/1  238/2/1  219/3/1  218/4/1 
f  238/1/1  239/2/1  220/3/1  219/4/1 
f  239/1/1  240/2/1  221/3/1  220/4/1 
f  240/1/1  241/2/1  222/3/1  221/4/1 
f  241/1/1  242/2/1  223/3/1  222/4/1 
f  242/1/1  243/2/1  224/3/1  223/4/1 
f  243/1/1  244/2/1  225/3/1  224/4/1 
f  244/1/1  245/2/1  226/3/1  225/4/1 
f  245/1/1  246/2/1  227/3/1  226/4/1 
f  246/1/1  247/2/1  228/3/1  227/4/1 
f  248/1/1  249/2/1  230/3/1  229/4/1 
f  249/1/1  250/2/1  231/3/1  230/4/1 
f  250/1/1  251/2/1  232/3/1  231/4/1 
f  251/1/1  252/2/1  233/3/1  232/4/1 
f  252/1/1  253/2/1  234/3/1  233/4/1 
f  253/1/1  254/2/1  235/3/1  234/4/1 
f  254/1/1  255/2/1  236/3/1  235/4/1 
f  255/1/1  256/2/1  237/3/1  236/4/1 
f  256/1/1  257/2/1  238/3/1  237/4/1 
f  257/1/1  258/2/1  239/3/1  238/4/1 
f  258/1/1  259/2/1  240/3/1  239/4/1 
f  259/1/1  260/2/1  241/3/1  240/4/1 
f  260/1/1  261/2/1  242/3/1  241/4/1 
f  261/1/1  262/2/1  243/3/1  242/4/1 
f  262/1/1  263/2/1  244/3/1  243/4/1 
f  263/1/1  264/2/1  245/3/1  244/4/1 
f  264/1/1  265/2/1  246/3/1  245/4/1 
f  265/1/1  266/2/1  247/3/1  246/4/1 
f  267/1/1  268/2/1  249/3/1  248/4/1 
f  268/1/1  269/2/1  250/3/1  249/4/1 
f  269/1/1  270/2/1  251/3/1  250/4/1 
f  270/1/1  271/2/1  252/3/1  251/4/1 
f  271/1/1  272/2/1  253/3/1  252/4/1 
f  272/1/1  273/2/1  254/3/1  253/4/1 
f  273/1/1  274/2/1  255/3/1  254/4/1 
f  274/1/1  275/2/1  256/3/1  255/4/1 
f  275/1/1  276/2/1  257/3/1  256/4/1 
f  276/1/1  277/2/1  258/3/1  257/4/1 
f  277/1/1  278/2/1  259/3/1  258/4/1 
f  278/1/1  279/2/1  260/3/1  259/4/1 
f  279/1/1  280/2/1  261/3/1  260/4/1 
f  280/1/1  281/2/1  262/3/1  261/4/1 
f  281/1/1  282/2/1  263/3/1  262/4/1 
f  282/1/1  283/2/1  264/3/1  263/4/1 
f  283/1/1  284/2/1  265/3/1  264/4/1 
f  284/1/1  285/2/1  266/3/1  265/4/1 
f  286/1/1  287/2/1  268/3/1  267/4/1 
f  287/1/1  288/2/1  269/3/1  268/4/1 
f  288/1/1  289/2/1  270/3/1  269/4/1 
f  289/1/1  290/2/1  271/3/1  270/4/1 
f  290/1/1  291/2/1  272/3/1  271/4/1 
f  291/1/1  292/2/1  273/3/1  272/4/1 
f  292/1/1  293/2/1  274/3/1  273/4/1 
f  293/1/1  294/2/1  275/3/1  274/4/1 
f  294/1/1  295/2/1  276/3/1  275/4/1 
f  295/1/1  296/2/1  277/3/1  276/4/1 
f  296/1/1  297/2/1  278/3/1  277/4/1 
f  297/1/1  298/2/1  279/3/1  278/4/1 
f  298/1/1  299/2/1  280/3/1  279/4/1 
f  299/1/1  300/2/1  281/3/1  280/4/1 
f  300/1/1  301/2/1  282/3/1  281/4/1 
f  301/1/1  302/2/1  283/3/1  282/4/1 
f  302/1/1  303/2/1  284/3/1  283/4/1 
f  303/1/1  304/2/1  285/3/1  284/4/1 
f  305/1/1  306/2/1  287/3/1  286/4/1 
f  306/1/1  307/2/1  288/3/1  287/4/1 
f  307/1/1  308/2/1  289/3/1  288/4/1 
f  308/1/1  309/2/1  290/3/1  289/4/1 
f  309/1/1  310/2/1  291/3/1  290/4/1 
f  310/1/1  311/2/1  292/3/1  291/4/1 
f  311/1/1  312/2/1  293/3/1  292/4/1 
f  312/1/1  313/2/1  294/3/1  293/4/1 
f  313/1/1  314/2/1  295/3/1  294/4/1 
f  314/1/1  315/2/1  296/3/1  295/4/1 
f  315/1/1  316/2/1  297/3/1  296/4/1 
f  316/1/1  317/2/1  298/3/1  297/4/1 
f  317/1/1  318/2/1  299/3/1  298/4/1 
f  318/1/1  319/2/1  300/3/1  299/4/1 
f  319/1/1  320/2/1  301/3/1  300/4/1 
f  320/1/1  321/2/1  302/3/1  301/4/1 
f  321/1/1  322/2/1  303/3/1  302/4/1 
f  322/1/1  323/2/1  304/3/1  303/4/1 
f  324/1/1  325/2/1  306/3/1  305/4/1 
f  325/1/1  326/2/1  307/3/1  306/4/1 
f  326/1/1  327/2/1  308/3/1  307/4/1 
f  327/1/1  328/2/1  309/3/1  308/4/1 
f  328/1/1  329/2/1  310/3/1  309/4/1 
f  329/1/1  330/2/1  311/3/1  310/4/1 
f  330/1/1  331/2/1  312/3/1  311/4/1 
f  331/1/1  332/2/1  313/3/1  312/4/1 
f  332/1/1  333/2/1  314/3/1  313/4/1 
f  333/1/1  334/2/1  315/3/1  314/4/1 
f  334/1/1  335/2/1  316/3/1  315/4/1 
f  335/1/1  336/2/1  317/3/1  316/4/1 
f  336/1/1  337/2/1  318/3/1  317/4/1 
f  337/1/1  338/2/1  319/3/1  318/4/1 
f  338/1/1  339/2/1  320/3/1  319/4/1 
f  339/1/1  340/2/1  321/3/1  320/4/1 
f  340/1/1  341/2/1  322/3/1  321/4/1 
f  341/1/1  342/2/1  323/3/1  322/4/1 
f  343/1/1  344/2/1  325/3/1  324/4/1 
f  344/1/1  345/2/1  326/3/1  325/4/1 
f  345/1/1  346/2/1  327/3/1  326/4/1 
f  346/1/1  347/2/1  328/3/1  327/4/1 
f  347/1/1  348/2/1  329/3/1  328/4/1 
f  348/1/1  349/2/1  330/3/1  329/4/1 
f  349/1/1  350/2/1  331/3/1  330/4/1 
f  350/1/1  351/2/1  332/3/1  331/4/1 
f  351/1/1  352/2/1  333/3/1  332/4/1 
f  352/1/1  353/2/1  334/3/1  333/4/1 
f  353/1/1  354/2/1  335/3/1  334/4/1 
f  354/1/1  355/2/1  336/3/1  335/4/1 
f  355/1/1  356/2/1  337/3/1  336/4/1 
f  356/1/1  357/2/1  338/3/1  337/4/1 
f  357/1/1  358/2/1  339/3/1  338/4/1 
f  358/1/1  359/2/1  340/3/1  339/4/1 
f  359/1/1  360/2/1  341/3/1  340/4/1 
f  360/1/1  361/2/1  342/3/1  341/4/1 
g mesh_[01]_[00]
f  1/5/1  2/6/1  3/7/1  4/8/1 
f  2/9/1  5/10/1  6/11/1  3/12/1 
f  5/13/1  7/14/1  8/15/1  6/16/1 
f  7/17/1  9/18/1  10/19/1  8/20/1 
f  9/9/1  11/10/1  12/11/1  10/12/1 
f  11/13/1  13/14/1  14/15/1  12/16/1 
f  13/17/1  15/18/1  16/19/1  14/20/1 
f  15/9/1  17/10/1  18/11/1  16/12/1 
f  17/13/1  19/14/1  20/15/1  18/16/1 
f  19/17/1  21/18/1  22/19/1  20/20/1 
f  21/9/1  23/10/1  24/11/1  22/12/1 
f  23/13/1  25/14/1  26/15/1  24/16/1 
f  25/1/1  27/2/1  28/3/1  26/4/1 
f  27/1/1  29/2/1  30/3/1  28/4/1 
f  29/13/1  31/14/1  32/15/1  30/16/1 
f  31/17/1  33/18/1  34/19/1  32/20/1 
f  33/9/1  35/10/1  36/11/1  34/12/1 
f  35/21/1  37/22/1  38/23/1  36/24/1 
f  39/25/1  40/26/1  2/27/1  1/28/1 
f  56/29/1  57/30/1  37/31/1  35/32/1 
f  58/33/1  59/34/1  40/35/1  39/36/1 
f  75/37/1  76/38/1  57/39/1  56/40/1 
f  77/41/1  78/42/1  59/43/1  58/44/1 
f  94/45/1  95/46/1  76/47/1  75/48/1 
f  96/25/1  97/26/1  78/27/1  77/28/1 
f  113/29/1  114/30/1  95/31/1  94/32/1 
f  115/33/1  116/34/1  97/35/1  96/36/1 
f  132/37/1  133/38/1  114/39/1  113/40/1 
f  134/41/1  135/42/1  116/43/1  115/44/1 
f  151/45/1  152/46/1  133/47/1  132/48/1 
f  153/25/1  154/26/1  135/27/1  134/28/1 
f  170/29/1  171/30/1  152/31/1  151/32/1 
f  172/33/1  173/34/1  154/35/1  153/36/1 
f  189/37/1  190/38/1  171/39/1  170/40/1 
f  191/41/1  192/42/1  173/43/1  172/44/1 
f  208/45/1  209/46/1  190/47/1  189/48/1 
f  210/25/1  211/26/1  192/27/1  191/28/1 
f  227/29/1  228/30/1  209/31/1  208/32/1 
f  229/33/1  230/34/1  211/35/1  210/36/1 
f  246/37/1  247/38/1  228/39/1  227/40/1 
f  248/41/1  249/42/1  230/43/1  229/44/1 
f  265/45/1  266/46/1  247/47/1  246/48/1 
f  267/25/1  268/26/1  249/27/1  248/28/1 
f  284/29/1  285/30/1  266/31/1  265/32/1 
f  286/33/1  287/34/1  268/35/1  267/36/1 
f  303/37/1  304/38/1  285/39/1  284/40/1 
f  305/41/1  306/42/1  287/43/1  286/44/1 
f  322/45/1  323/46/1  304/47/1  303/48/1 
f  324/25/1  325/26/1  306/27/1  305/28/1 
f  341/29/1  342/30/1  323/31/1  322/32/1 
f  343/49/1  344/50/1  325/51/1  324/52/1 
f  344/53/1  345/54/1  326/55/1  325/56/1 
f  345/57/1  346/58/1  327/59/1  326/60/1 
f  346/61/1  347/62/1  328/63/1  327/64/1 
f  347/53/1  348/54/1  329/55/1  328/56/1 
f  348/57/1  349/58/1  330/59/1  329/60/1 
f  349/61/1  350/62/1  331/63/1  330/64/1 
f  350/53/1  351/54/1  332/55/1  331/56/1 
f  351/57/1  352/58/1  333/59/1  332/60/1 
f  352/61/1  353/62/1  334/63/1  333/64/1 
f  353/53/1  354/54/1  335/55/1  334/56/1 
f  354/57/1  355/58/1  336/59/1  335/60/1 
f  355/61/1  356/62/1  337/63/1  336/64/1 
f  356/53/1  357/54/1  338/55/1  337/56/1 
f  357/57/1  358/58/1  339/59/1  338/60/1 
f  358/61/1  359/62/1  340/63/1  339/64/1 
f  359/53/1  360/54/1  341/55/1  340/56/1 
f  360/65/1  361/66/1  342/67/1  341/68/1 
g mesh_[02]_[01]
f  1/69/1  2/70/1  3/71/1  4/40/1 
f  2/69/1  5/70/1  6/71/1  3/40/1 
f  5/69/1  7/70/1  8/71/1  6/40/1 
f  7/69/1  9/70/1  10/71/1  8/40/1 
f  9/69/1  11/70/1  12/71/1  10/40/1 
f  11/69/1  13/70/1  14/71/1  12/40/1 
f  13/69/1  15/70/1  16/71/1  14/40/1 
f  15/69/1  17/70/1  18/71/1  16/40/1 
f  17/69/1  19/70/1  20/71/1  18/40/1 
f  19/69/1  21/70/1  22/71/1  20/40/1 
f  21/69/1  23/70/1  24/71/1  22/40/1 
f  23/69/1  25/70/1  26/71/1  24/40/1 
f  29/69/1  31/70/1  32/71/1  30/40/1 
f  31/69/1  33/70/1  34/71/1  32/40/1 
f  33/69/1  35/70/1  36/71/1  34/40/1 
f  35/69/1  37/70/1  38/71/1  36/40/1 
f  39/69/1  40/70/1  2/71/1  1/40/1 
f  56/69/1  57/70/1  37/71/1  35/40/1 
f  58/69/1  59/70/1  40/71/1  39/40/1 
f  75/69/1  76/70/1  57/71/1  56/40/1 
f  77/69/1  78/70/1  59/71/1  58/40/1 
f  94/69/1  95/70/1  76/71/1  75/40/1 
f  96/69/1  97/70/1  78/71/1  77/40/1 
f  113/69/1  114/70/1  95/71/1  94/40/1 
f  115/69/1  116/70/1  97/71/1  96/40/1 
f  132/69/1  133/70/1  114/71/1  113/40/1 
f  134/69/1  135/70/1  116/71/1  115/40/1 
f  151/69/1  152/70/1  133/71/1  132/40/1 
f  153/69/1  154/70/1  135/71/1  134/40/1 
f  170/69/1  171/70/1  152/71/1  151/40/1 
f  172/69/1  173/70/1  154/71/1  153/40/1 
f  189/69/1  190/70/1  171/71/1  170/40/1 
f  191/69/1  192/70/1  173/71/1  172/40/1 
f  208/69/1  209/70/1  190/71/1  189/40/1 
f  210/69/1  211/70/1  192/71/1  191/40/1 
f  227/69/1  228/70/1  209/71/1  208/40/1 
f  229/69/1  230/70/1  211/71/1  210/40/1 
f  246/69/1  247/70/1  228/71/1  227/40/1 
f  248/69/1  249/70/1  230/71/1  229/40/1 
f  265/69/1  266/70/1  247/71/1  246/40/1 
f  267/69/1  268/70/1  249/71/1  248/40/1 
f  284/69/1  285/70/1  266/71/1  265/40/1 
f  286/69/1  287/70/1  268/71/1  267/40/1 
f  303/69/1  304/70/1  285/71/1  284/40/1 
f  305/69/1  306/70/1  287/71/1  286/40/1 
f  322/69/1  323/70/1  304/71/1  303/40/1 
f  324/69/1  325/70/1  306/71/1  305/40/1 
f  341/69/1  342/70/1  323/71/1  322/40/1 
f  343/69/1  344/70/1  325/71/1  324/40/1 
f  344/69/1  345/70/1  326/71/1  325/40/1 
f  345/69/1  346/70/1  327/71/1  326/40/1 
f  346/69/1  347/70/1  328/71/1  327/40/1 
f  347/69/1  348/70/1  329/71/1  328/40/1 
f  348/69/1  349/70/1  330/71/1  329/40/1 
f  349/69/1  350/70/1  331/71/1  330/40/1 
f  350/69/1  351/70/1  332/71/1  331/40/1 
f  351/69/1  352/70/1  333/71/1  332/40/1 
f  352/69/1  353/70/1  334/71/1  333/40/1 
f  353/69/1  354/70/1  335/71/1  334/40/1 
f  354/69/1  355/70/1  336/71/1  335/40/1 
f  355/69/1  356/70/1  337/71/1  336/40/1 
f  356/69/1  357/70/1  338/71/1  337/40/1 
f  357/69/1  358/70/1  339/71/1  338/40/1 
f  358/69/1  359/70/1  340/71/1  339/40/1 
f  359/69/1  360/70/1  341/71/1  340/40/1 
f  360/69/1  361/70/1  342/71/1  341/40/1 
